Project Submission
…
# Methodology to Create a Shortlist of Appropriate Candidate ETS
Models

# Check for missing values
missing_values <- data %>% summarise(across(everything(), ~ sum(is.na(.))))
print(missing_values)

## # A tsibble: 139 x 2 [1Q]
##       Date FAAFFSS
##      <qtr>   <int>
##  1 1987 Q2       0
##  2 1987 Q3       0
##  3 1987 Q4       0
##  4 1988 Q1       0
##  5 1988 Q2       0
##  6 1988 Q3       0
##  7 1988 Q4       0
##  8 1989 Q1       0
##  9 1989 Q2       0
## 10 1989 Q3       0
## #  129 more rows
…
\(b_t\) is the trend component at
time t.

\(s_t\) is the seasonal component at
time t.

, , and  are the smoothing parameters for the level, trend, and
seasonal components, respectively.

m is the period of seasonality.

# Plot the fitted values
best_model %>% augment()

## # A tsibble: 139 x 6 [1Q]
## # Key:       .model [1]
##    .model                                  Date FAAFFSS .fitted  .resid   .innov
##    <chr>                                  <qtr>   <dbl>   <dbl>   <dbl>    <dbl>
##  1 "ETS(FAAFFSS ~ error(\"M\") + trend 1987 Q2     178    180.  -1.96  -0.0109 
##  2 "ETS(FAAFFSS ~ error(\"M\") + trend 1987 Q3     244    256. -12.0   -0.0467 
##  3 "ETS(FAAFFSS ~ error(\"M\") + trend 1987 Q4     200    196.   3.76   0.0192 
##  4 "ETS(FAAFFSS ~ error(\"M\") + trend 1988 Q1     186    187.  -0.583 -0.00313
##  5 "ETS(FAAFFSS ~ error(\"M\") + trend 1988 Q2     205    195.   9.63   0.0493 
##  6 "ETS(FAAFFSS ~ error(\"M\") + trend 1988 Q3     296    280.  15.6    0.0556 
##  7 "ETS(FAAFFSS ~ error(\"M\") + trend 1988 Q4     224    233.  -9.12  -0.0391 
##  8 "ETS(FAAFFSS ~ error(\"M\") + trend 1989 Q1     232    212.  19.8    0.0932 
##  9 "ETS(FAAFFSS ~ error(\"M\") + trend 1989 Q2     217    238. -21.3   -0.0895 
## 10 "ETS(FAAFFSS ~ error(\"M\") + trend 1989 Q3     300    319. -18.9   -0.0593 
## #  129 more rows
…
