…
*l*<sub>*t*</sub> is the level component at time t.

*b*<sub>*t*</sub> is the trend component at time t.

*s*<sub>*t*</sub> is the seasonal component at time t.

α, β, and γ are the smoothing parameters for the level, trend, and
seasonal components, respectively.

m is the period of seasonality.

    # Plot the fitted values
    best_model %>% augment()

    ## # A tsibble: 139 x 6 [1Q]
    ## # Key:       .model [1]
    ##    .model                                  Date FAAFFSS .fitted  .resid   .innov
    ##    <chr>                                  <qtr>   <dbl>   <dbl>   <dbl>    <dbl>
    ##  1 "ETS(FAAFFSS ~ error(\"M\") + trend… 1987 Q2     178    180.  -1.96  -0.0109 
    ##  2 "ETS(FAAFFSS ~ error(\"M\") + trend… 1987 Q3     244    256. -12.0   -0.0467 
    ##  3 "ETS(FAAFFSS ~ error(\"M\") + trend… 1987 Q4     200    196.   3.76   0.0192 
    ##  4 "ETS(FAAFFSS ~ error(\"M\") + trend… 1988 Q1     186    187.  -0.583 -0.00313
    ##  5 "ETS(FAAFFSS ~ error(\"M\") + trend… 1988 Q2     205    195.   9.63   0.0493 
    ##  6 "ETS(FAAFFSS ~ error(\"M\") + trend… 1988 Q3     296    280.  15.6    0.0556 
    ##  7 "ETS(FAAFFSS ~ error(\"M\") + trend… 1988 Q4     224    233.  -9.12  -0.0391 
    ##  8 "ETS(FAAFFSS ~ error(\"M\") + trend… 1989 Q1     232    212.  19.8    0.0932 
    ##  9 "ETS(FAAFFSS ~ error(\"M\") + trend… 1989 Q2     217    238. -21.3   -0.0895 
    ## 10 "ETS(FAAFFSS ~ error(\"M\") + trend… 1989 Q3     300    319. -18.9   -0.0593 
    ## # ℹ 129 more rows
…
